Praktikum 6 Anreg
…
X8 = PASS_F3RD_TOT (Rata-rata total umpan di sepertiga akhir)

X9 = PASS_F3RD_SUC (Rata-rata umpan sukses di sepertiga akhir)

X10 = CROSSES_TOT (Rata-rata total umpan silang per pertandingan)

X11 = CROSS_SUC (Rata-rata umpan silang sukses per pertandingan)

X12 = TROUGH_BALL (Rata-rata umpan terobosan per pertandingan)

dt <- read_excel("D:\\SMT4\\ANREG\\UCL_Team_Goals_2526.xlsx")
dt # menampilkan data

## # A tibble: 36 × 14
##    TEAM  GOALS    XG SHOTS   SOT AVG_POSS TOU_IN_BOX HEADERS FAST_BREAKS
##    <chr> <dbl> <dbl> <dbl> <dbl>    <dbl>      <dbl>   <dbl>       <dbl>
##  1 LIV   0.344 0.336  2.48 0.984    0.547       39.2    4.75       2.88 
##  2 ARS   0.359 0.317  2.11 0.984    0.545       32.5    3.25       1    
##  3 PSG   0.328 0.280  2.70 0.953    0.679       39.8    2.12       1.38 
##  4 FCB   0.344 0.316  2.17 0.953    0.584       34.5    1.25       1.12 
##  5 RMA   0.328 0.297  2.44 0.906    0.58        34.8    2.5        2.12 
##  6 MCI   0.234 0.223  1.97 0.891    0.601       35.5    2.88       0.875
##  7 BAR   0.344 0.223  2.19 0.859    0.644       34.2    1.38       0.875
##  8 ATM   0.266 0.228  1.95 0.797    0.532       32.5    3.25       1.25 
##  9 JUV   0.219 0.208  2    0.766    0.488       26.6    2.75       1.75 
## 10 NEW   0.266 0.231  1.62 0.75     0.477       28.2    2.75       1    
## # ℹ 26 more rows
## # ℹ 5 more variables: PASS_F3RD_TOT <dbl>, PASS_F3RD_SUC <dbl>,
## #   CROSSES_TOT <dbl>, CROSS_SUC <dbl>, TROUGH_BALL <dbl>
…
